Introduction to rGEO
…
You can find them at https://www.ncbi.nlm.nih.gov/geo/browse/, or use the following handy tools:

rGEO::gse_soft_ftp('GSE51280')
#> [1] "ftp://ftp.ncbi.nlm.nih.gov/geo/series/GSE51nnn/GSE51280/soft/GSE51280_family.soft.gz"

rGEO::gse_matrix_ftp('GSE51280')
#> [1] "ftp://ftp.ncbi.nlm.nih.gov/geo/series/GSE51nnn/GSE51280/matrix/GSE51280_series_matrix.txt.gz"

Then you can read them:

# expression matrix file
rGEO::read_gse_matrix(system.file('extdata/GSE51280_series_matrix.txt.gz', package = 'rGEO'))

# A tibble: 123 x 25
   ID_REF GSM1241791 GSM1241792 GSM1241793 GSM1241794 GSM1241795
   <chr>       <dbl>      <dbl>      <dbl>      <dbl>      <dbl>
 1 20          -3.88      -4.00      -3.56      -2.54      -3.98
 2 21          -8.82      -9.61      -8.94      -5.44      -8.36
 3 22          -3.65      -5.80      -1.00      -3.54      -2.81
 4 23          -4.92      -7.61      -5.88      -4.60      -4.00
 5 24          -3.51      -4.12      -3.92      -4.30      -4.31
 6 25          -3.36      -3.90      -5.60      -2.52      -4.19
 7 26          -6.06      -6.38      -7.17      -4.71      -6.41
 8 27          -5.40      -5.01      -6.53      -4.74      -6.29
 9 28          -2.77      -3.20      -1.29      -4.07      -3.16
10 29          -3.38      -2.26      -4.26      -2.42      -4.33
# ... with 113 more rows, and 19 more variables: GSM1241796 <dbl>,
#   GSM1241797 <dbl>, GSM1241798 <dbl>, GSM1241799 <dbl>,
#   GSM1241800 <dbl>, GSM1241801 <dbl>, GSM1241802 <dbl>,
#   GSM1241803 <dbl>, GSM1241804 <dbl>, GSM1241805 <dbl>,
#   GSM1241806 <dbl>, GSM1241807 <dbl>, GSM1241808 <dbl>,
#   GSM1241809 <dbl>, GSM1241810 <dbl>, GSM1241811 <dbl>,
#   GSM1241812 <dbl>, GSM1241813 <dbl>, GSM1241814 <dbl>

# SOFT (chip annotation) file
rGEO::read_gse_soft(system.file('extdata/GSE51280_family.soft.gz', package = 'rGEO'))

# A tibble: 121 x 2
   ID_REF symbol 
   <chr>  <chr>  
 1 100    NDC80  
 2 101    NDRG1  
 3 102    NEUROG1
 4 103    NT5E   
 5 104    NUF2   
 6 106    PGR    
 7 107    PHGDH  
 8 109    PIK3CA 
 9 110    PLOD1  
10 111    PNP    
# ... with 111 more rows
…
$accession
[1] "GPL17590"

$info
# A tibble: 5 x 2
  name        description                                                 
  <chr>       <chr>                                                       
1 ID          ""                                                          
2 GENE_SYMBOL Gene Symbol                                                 
3 GB_ACC      "Genebank accession number LINK_PRE:\"http://www.ncbi.nlm.n…
4 Class Name  Gene Class                                                  
5 SPOT_ID     ""                                                          

$table
# A tibble: 142 x 5
   ID    GENE_SYMBOL  GB_ACC `Class Name` SPOT_ID
   <chr> <chr>        <chr>  <chr>        <chr>  
 1 1     POS_A(128)   <NA>   Positive     CONTROL
 2 2     POS_B(32)    <NA>   Positive     CONTROL
 3 3     POS_C(8)     <NA>   Positive     CONTROL
 4 4     POS_D(2)     <NA>   Positive     CONTROL
 5 5     POS_E(0.5)   <NA>   Positive     CONTROL
 6 6     POS_F(0.125) <NA>   Positive     CONTROL
 7 7     NEG_A(0)     <NA>   Negative     CONTROL
 8 8     NEG_B(0)     <NA>   Negative     CONTROL
 9 9     NEG_C(0)     <NA>   Negative     CONTROL
10 10    NEG_D(0)     <NA>   Negative     CONTROL
# ... with 132 more rows
…
